﻿    //protected void SendMail()
    //{
    // // if (txtemailid.Text != "")
    // //   MailMessage mail = new MailMessage();
    // //   mail.To.Add(txtemailid.Text);
    // //   //  mail.To.Add("scarlettest123@gmail.com");
    // //   mail.From = new MailAddress("sample963752@gmail.com");
    // //   mail.Subject = "Thanks for contacting sarvagnya.in.";
    // //   string messageBodyString = "<html><Title>  </title><body>";
    // //   messageBodyString += "<html><Title>sarvagnya</title><body>";
    // //   messageBodyString += "<table  border='0' cellpadding='0' cellspacing='0' width='800'>";
    // //   messageBodyString += "<tr><td colspan='2' valign='top' align='center'><h2><u>sarvagnya.in</u></h2></td></tr>";
    // ////   messageBodyString += "<tr><td colspan='2'  valign='top' align='left'><b>Thank you, " + txtname.Text + " for contacting sarvagnya.in. </b><br/></td></tr>";
    // //   messageBodyString += "<tr><td colspan='2'  valign='top' align='left'><b> We will come back to you shortly. </b><br/></td></tr><br/>";
    // //   messageBodyString += "<tr><td colspan='2'  valign='top' align='left'><b> Thanks & Regards, </b><br/></td></tr>";
    // //   messageBodyString += "<tr><td colspan='2'  valign='top' align='left'><b> Sarvagnya Solutions. </b><br/></td></tr>";
    // //   messageBodyString += "<tr><td colspan='2'  valign='top' align='left'><b> -------------------------------------------------------------------------- </b><br/></td></tr>";
    // //   messageBodyString += "<tr><td colspan='2'  valign='top' align='left'><b> Ph. +91-40-39123501, +91-40-39123502, +91-40-39123503 </b><br/></td></tr>";
    // //   messageBodyString += "<tr><td colspan='2'  valign='top' align='left'><b> Email: info@sarvagnya.in Web: www.sarvagnya.in </b><br/></td></tr>";
    // //   messageBodyString += "</table></body></html>";
    // //   mail.Body = messageBodyString;
    // //   mail.IsBodyHtml = true;
    // //   SmtpClient smtp = new SmtpClient();
    // //   smtp.Host = "smtp.gmail.com";
    // //   smtp.Credentials = new System.Net.NetworkCredential("sample963752@gmail.com", "atul@123");
    // //   smtp.EnableSsl = true;
    // //   smtp.Send(mail);

    //    objCommonUI.Flag = "Email_Creadential";      
    //    DataTable dtl = objController.Login(objCommonUI, null);
    //    string user_name = dtl.Rows[0]["UserName"].ToString();
    //    string Pass_word = dtl.Rows[0]["Password"].ToString();

    //    if (txtemailid.Text != "")
    //    {
    //        objCommonUI.EmailId = txtemailid.Text;
    //        //DataTable dt = new DataTable();
    //        string EmailId = txtemailid.Text.ToString();
    //        string FirstName = txtfirstname.Text;
    //        string LinkActiveTime = Convert.ToString(Session["NoOfHrs"]);
    //       // string UserName = txtfirstname.Text + txtlastname.Text;
    //        string UserName = objCommonUI.UserName;
    //        string Password = objCommonUI.Password;
    //        //string LastName = Convert.ToString("LastName");
    //        if (EmailId != "")
    //        {
    //            MailMessage mail = new MailMessage();
    //            mail.To.Add(EmailId);
    //            mail.From = new MailAddress(user_name);
    //            mail.Subject = " Sarvaguna Indicator - User Created Notification";
    //            string Body = "Dear " + FirstName + " " + "," + "<br/><br/>";
    //            Body += "Following Login details have been created for you. <br/><br/> ";
    //            //Body += "Login Details: <br/> <br/>";
    //            Body += "<b>Username:" + UserName + "</b><br/>";
    //            Body += "<b>Password:" + Password + "</b><br/> <br/>";
    //            Body += "Please copy these details exactly as they are into the Login screen.  <br/><br/>";
    //            Body += " To access the Test, click on the link below or copy (CTRL+C) and then paste it (CTRL+V) into your web browser address bar: <br/><br/> ";
    //            Body += "www.sarvagnyasolutions.org" + "<br/><br/>";
    //            Body += "Please use Firefox, Chrome or Internet Explorer for better experience. <br/> <br/>";
    //            Body += "<b>Your login details will be active for only " + LinkActiveTime + " hours.</b> <br/><br/>";
    //            Body += "For Technical Support please contact the Project Administrator using the contact details as given below. Please have this email close to hand when you call. <br/><br/>";
    //            Body += "Telephone: +91-40-2335 3332 / 33 <br/>";
    //            //Body += "Mobile no : +91-9618686726 <br/>";
    //            Body += " Email: info@sarvagnya.in <br/>";
    //            Body += " Telephone hours available: Mon – Fri 10am to 5pm <br/><br/>";
    //            Body += "Kind Regards <br/><br/>";
    //            Body += " Sarvagnya Solutions. <br/> ";
    //            //  "Your UserName :" + CandUserName + "<br/>";
    //            //  Body += "Your Password:" + CandPassword;
    //            mail.Body = Body;

    //           // mail.IsBodyHtml = true;
    //           // SmtpClient smtp = new SmtpClient();
    //           ////smtp.Port = 587;
    //           //  smtp.Port = 25;
    //           //// smtp.Port = 465;
    //           // smtp.Host = "smtpout.secureserver.net";
    //           //// smtp.Host = "smtp.gmail.com";
    //            //smtp.ServicePoint.MaxIdleTime = 60000;
    //            //smtp.Timeout = 60000;           
    //           //// smtp.Credentials = new System.Net.NetworkCredential("info@sarvagunaindicator.com", "qwaszx123");
    //           // smtp.Credentials = new System.Net.NetworkCredential("sarvaguna@sarvagnya.in", "sitest@1357");
    //           // smtp.EnableSsl = false;
    //           // smtp.Send(mail);

    //            mail.IsBodyHtml = true;
    //            SmtpClient smtp = new SmtpClient();
    //           // smtp.Port = 587;
    //           // smtp.Host = "smtp.gmail.com";

    //            smtp.Host = "relay-hosting.secureserver.net";   //-- Donot change.
    //            smtp.Port = 25;

    //            smtp.ServicePoint.MaxIdleTime = 60000;
    //            smtp.Timeout = 60000;
    //            smtp.Credentials = new System.Net.NetworkCredential(user_name, Pass_word);
    //            smtp.EnableSsl = true;
    //            smtp.Send(mail);
    //            objCommonUI.starttime = System.DateTime.Now;
    //            objCommonUI.endtime = System.DateTime.Now;
    //            objCommonUI.LoginId = Session["LoginId"].ToString();
    //            objCommonUI.Flag = "Ismailsend";
    //            dt = objController.Login(objCommonUI, null);
    //        }
    //    } 
    //}
